{
"data":[
{
"code":0,
"desc":"",
"data":{

"catalog":[
{
"cabin_class_id":4,
"cabin_class":"ECONOMY",
"catalog_id":1,
"language_code":"ENG",
"catalog_title":"BreakFast",
"catalog_code":"BreakFast",
"catalog_status":0,
"catalog_cart_status":0
},
{
"cabin_class_id":4,
"cabin_class":"ECONOMY",
"catalog_id":2,
"language_code":"ENG",
"catalog_title":"Duty Free",
"catalog_code":"Duty Free",
"catalog_status":1,
"catalog_cart_status":0
},
{
"cabin_class_id":4,
"cabin_class":"ECONOMY",
"catalog_id":3,
"language_code":"ENG",
"catalog_title":"Duty Free",
"catalog_code":"Duty Free",
"catalog_status":1,
"catalog_cart_status":0
},
{
"cabin_class_id":4,
"cabin_class":"ECONOMY",
"catalog_id":4,
"language_code":"ENG",
"catalog_title":"Duty Free",
"catalog_code":"Duty Free",
"catalog_status":1,
"catalog_cart_status":0
},
{
"cabin_class_id":4,
"cabin_class":"BUSINESS",
"catalog_id":1,
"language_code":"ENG",
"catalog_title":"Duty Free",
"catalog_code":"Duty Free",
"catalog_status":1,
"catalog_cart_status":0
},
{
"cabin_class_id":4,
"cabin_class":"BUSINESS",
"catalog_id":3,
"language_code":"ENG",
"catalog_title":"Duty Free",
"catalog_code":"Duty Free",
"catalog_status":1,
"catalog_cart_status":0
},
{
"cabin_class_id":4,
"cabin_class":"BUSINESS",
"catalog_id":4,
"language_code":"ENG",
"catalog_title":"Duty Free",
"catalog_code":"Duty Free",
"catalog_status":1,
"catalog_cart_status":0
}
]
}
}
]
}
