{
"data":[
{
"base_currency_code":"USD",
"catalog":[
{
"merchant_id":"1",
"catalog_id":"1",
"catalog_type":"breakfast",
"catalog_code":"Breakfast  Menu Is Available Based On Time Available",
"language_id":"1",
"title":"Breakfast Menu Is Available Based On Time Available",
"sub_title":"AA Economy Class Beverage Subtitle",
"description_long":"AA Economy Class Beverage Long Description",
"description_short":"AA Economy Class Beverage Short Description",
"catalog_image":"/tmp/interactive/content/media/images/eco_meal_syn_poster.png",
"catalog_lang_poster_image":"\/tmp\/media\/other\/catalog_images_hosp\/Economy-HOSP-catalog-2-ENG-poster.jpg",
"catalog_lang_thumb_image":"/tmp/interactive/content/media/images/eco_meal_poster_big.png",
"catalog_lang_icon_image":"\/tmp\/media\/other\/catalog_images_hosp\/Economy-HOSP-catalog-2-ENG-icon.jpg",
"has_buttons":0,
"delay":[
{
"delay_id":"2",
"delay_code":"NOW",
"delay_description":"As soon as possible.",
"delay_minutes":"0"
}
],
"category_node":[
{
"category_node_id":"10",
"category_node_child_nodes":null,
"category_node_parent_id":null,
"title":"Option 1",
"sub_title":"Sodas",
"description_long":"",
"description_short":"",
"attr":[
],
"assoc":[
],
"category_node_sku":0,
"category_node_display_type":"3",
"has_buttons":0,
"item_node":[
{
"item_node_id":"61",
"item_id":"24",
"item_sku":"AAHOSP24",
"title":"Coca-Cola Classic",
"sub_title":"",
"description_short":"",
"description_long":"We apologize if your selection is not available.",
"item_code":"",
"item_product_code":"",
"item_thumb":"\/tmp\/media\/other\/catalog_images_hosp\/thumb_AAHOSP24.png",
"item_poster":"\/tmp\/media\/other\/catalog_images_hosp\/poster_AAHOSP24.png",
"calorie":"100",
"price":[
{
"currency_code":"USD",
"currency_symbol_left":"$",
"currency_symbol_right":false,
"currency_price":"0"
}
]
},
{
"item_node_id":"62",
"item_id":"25",
"item_sku":"AAHOSP25",
"title":"Diet Coke",
"sub_title":"",
"description_short":"",
"description_long":"We apologize if your selection is not available.",
"item_code":"",
"item_product_code":"",
"item_thumb":"\/tmp\/media\/other\/catalog_images_hosp\/thumb_AAHOSP25.png",
"item_poster":"\/tmp\/media\/other\/catalog_images_hosp\/poster_AAHOSP25.png",
"price":[
{
"currency_code":"USD",
"currency_symbol_left":"$",
"currency_symbol_right":false,
"currency_price":"0"
}
]
},
{
"item_node_id":"63",
"item_id":"26",
"item_sku":"AAHOSP26",
"title":"Sprite",
"sub_title":"",
"description_short":"",
"description_long":"We apologize if your selection is not available.",
"item_code":"",
"item_product_code":"",
"item_thumb":"\/tmp\/media\/other\/catalog_images_hosp\/thumb_AAHOSP26.png",
"item_poster":"\/tmp\/media\/other\/catalog_images_hosp\/poster_AAHOSP26.png",
"price":[
{
"currency_code":"USD",
"currency_symbol_left":"$",
"currency_symbol_right":false,
"currency_price":"0"
}
]
},
{
"item_node_id":"64",
"item_id":"16",
"item_sku":"AAHOSP16",
"title":"Pepsi",
"sub_title":"",
"description_short":"",
"description_long":"We apologize if your selection is not available.",
"item_code":"",
"item_product_code":"",
"item_thumb":"\/tmp\/media\/other\/catalog_images_hosp\/thumb_AAHOSP16.png",
"item_poster":"\/tmp\/media\/other\/catalog_images_hosp\/poster_AAHOSP16.png",
"price":[
{
"currency_code":"USD",
"currency_symbol_left":"$",
"currency_symbol_right":false,
"currency_price":"0"
}
]
},
{
"item_node_id":"65",
"item_id":"17",
"item_sku":"AAHOSP17",
"title":"Diet Pepsi",
"sub_title":"",
"description_short":"",
"description_long":"We apologize if your selection is not available.",
"item_code":"",
"item_product_code":"",
"item_thumb":"\/tmp\/media\/other\/catalog_images_hosp\/thumb_AAHOSP17.png",
"item_poster":"\/tmp\/media\/other\/catalog_images_hosp\/poster_AAHOSP17.png",
"price":[
{
"currency_code":"USD",
"currency_symbol_left":"$",
"currency_symbol_right":false,
"currency_price":"0"
}
]
},
{
"item_node_id":"66",
"item_id":"18",
"item_sku":"AAHOSP18",
"title":"Sierra Mist Natural",
"sub_title":"",
"description_short":"",
"description_long":"We apologize if your selection is not available.",
"item_code":"",
"item_product_code":"",
"item_thumb":"\/tmp\/media\/other\/catalog_images_hosp\/thumb_AAHOSP18.png",
"item_poster":"\/tmp\/media\/other\/catalog_images_hosp\/poster_AAHOSP18.png",
"price":[
{
"currency_code":"USD",
"currency_symbol_left":"$",
"currency_symbol_right":false,
"currency_price":"0"
}
]
},
{
"item_node_id":"67",
"item_id":"55",
"item_sku":"AAHOSP55",
"title":"Diet Sierra Mist",
"sub_title":"",
"description_short":"",
"description_long":"We apologize if your selection is not available.",
"item_code":"",
"item_product_code":"",
"item_thumb":"\/tmp\/media\/other\/catalog_images_hosp\/thumb_AAHOSP55.png",
"item_poster":"\/tmp\/media\/other\/catalog_images_hosp\/poster_AAHOSP55.png",
"price":[
{
"currency_code":"USD",
"currency_symbol_left":"$",
"currency_symbol_right":false,
"currency_price":"0"
}
]
},
{
"item_node_id":"68",
"item_id":"19",
"item_sku":"AAHOSP19",
"title":"Dr Pepper",
"sub_title":"",
"description_short":"",
"description_long":"We apologize if your selection is not available.",
"item_code":"",
"item_product_code":"",
"item_thumb":"\/tmp\/media\/other\/catalog_images_hosp\/thumb_AAHOSP19.png",
"item_poster":"\/tmp\/media\/other\/catalog_images_hosp\/poster_AAHOSP19.png",
"price":[
{
"currency_code":"USD",
"currency_symbol_left":"$",
"currency_symbol_right":false,
"currency_price":"0"
}
]
},
{
"item_node_id":"69",
"item_id":"20",
"item_sku":"AAHOSP20",
"title":"Diet Dr Pepper",
"sub_title":"",
"description_short":"",
"description_long":"We apologize if your selection is not available.",
"item_code":"",
"item_product_code":"",
"item_thumb":"\/tmp\/media\/other\/catalog_images_hosp\/thumb_AAHOSP20.png",
"item_poster":"\/tmp\/media\/other\/catalog_images_hosp\/poster_AAHOSP20.png",
"price":[
{
"currency_code":"USD",
"currency_symbol_left":"$",
"currency_symbol_right":false,
"currency_price":"0"
}
]
},
{
"item_node_id":"70",
"item_id":"23",
"item_sku":"AAHOSP23",
"title":"Canada Dry Club Soda",
"sub_title":"",
"description_short":"",
"description_long":"We apologize if your selection is not available.",
"item_code":"",
"item_product_code":"",
"item_thumb":"\/tmp\/media\/other\/catalog_images_hosp\/thumb_AAHOSP23.png",
"item_poster":"\/tmp\/media\/other\/catalog_images_hosp\/poster_AAHOSP23.png",
"price":[
{
"currency_code":"USD",
"currency_symbol_left":"$",
"currency_symbol_right":false,
"currency_price":"0"
}
]
},
{
"item_node_id":"71",
"item_id":"21",
"item_sku":"AAHOSP21",
"title":"Canada Dry Ginger Ale",
"sub_title":"",
"description_short":"",
"description_long":"We apologize if your selection is not available.",
"item_code":"",
"item_product_code":"",
"item_thumb":"\/tmp\/media\/other\/catalog_images_hosp\/thumb_AAHOSP21.png",
"item_poster":"\/tmp\/media\/other\/catalog_images_hosp\/poster_AAHOSP21.png",
"price":[
{
"currency_code":"USD",
"currency_symbol_left":"$",
"currency_symbol_right":false,
"currency_price":"0"
}
]
},
{
"item_node_id":"72",
"item_id":"22",
"item_sku":"AAHOSP22",
"title":"Canada Dry Tonic Water",
"sub_title":"",
"description_short":"",
"description_long":"We apologize if your selection is not available.",
"item_code":"",
"item_product_code":"",
"item_thumb":"\/tmp\/media\/other\/catalog_images_hosp\/thumb_AAHOSP22.png",
"item_poster":"\/tmp\/media\/other\/catalog_images_hosp\/poster_AAHOSP22.png",
"price":[
{
"currency_code":"USD",
"currency_symbol_left":"$",
"currency_symbol_right":false,
"currency_price":"0"
}
]
}
]
},
{
"category_node_id":"11",
"category_node_child_nodes":null,
"category_node_parent_id":null,
"title":"Option 2",
"sub_title":"Juices",
"description_long":"",
"description_short":"",
"attr":[
],
"assoc":[
],
"category_node_sku":0,
"category_node_display_type":"3",
"has_buttons":0,
"item_node":[
{
"item_node_id":"73",
"item_id":"29",
"item_sku":"AAHOSP29",
"title":"Minute Maid Apple Juice",
"sub_title":"",
"description_short":"",
"description_long":"We apologize if your selection is not available.",
"item_code":"",
"item_product_code":"",
"item_thumb":"\/tmp\/media\/other\/catalog_images_hosp\/thumb_AAHOSP29.png",
"item_poster":"\/tmp\/media\/other\/catalog_images_hosp\/poster_AAHOSP29.png",
"price":[
{
"currency_code":"USD",
"currency_symbol_left":"$",
"currency_symbol_right":false,
"currency_price":"0"
}
]
},
{
"item_node_id":"74",
"item_id":"27",
"item_sku":"AAHOSP27",
"title":"Minute Maid Cranberry Apple Cocktail",
"sub_title":"",
"description_short":"",
"description_long":"We apologize if your selection is not available.",
"item_code":"",
"item_product_code":"",
"item_thumb":"\/tmp\/media\/other\/catalog_images_hosp\/thumb_AAHOSP27.png",
"item_poster":"\/tmp\/media\/other\/catalog_images_hosp\/poster_AAHOSP27.png",
"price":[
{
"currency_code":"USD",
"currency_symbol_left":"$",
"currency_symbol_right":false,
"currency_price":"0"
}
]
},
{
"item_node_id":"75",
"item_id":"28",
"item_sku":"AAHOSP28",
"title":"Minute Maid Orange Juice",
"sub_title":"",
"description_short":"",
"description_long":"We apologize if your selection is not available.",
"item_code":"",
"item_product_code":"",
"item_thumb":"\/tmp\/media\/other\/catalog_images_hosp\/thumb_AAHOSP28.png",
"item_poster":"\/tmp\/media\/other\/catalog_images_hosp\/poster_AAHOSP28.png",
"price":[
{
"currency_code":"USD",
"currency_symbol_left":"$",
"currency_symbol_right":false,
"currency_price":"0"
}
]
},
{
"item_node_id":"76",
"item_id":"31",
"item_sku":"AAHOSP31",
"title":"Mott\u2019s Tomato Juice",
"sub_title":"",
"description_short":"",
"description_long":"We apologize if your selection is not available.",
"item_code":"",
"item_product_code":"",
"item_thumb":"\/tmp\/media\/other\/catalog_images_hosp\/thumb_AAHOSP31.png",
"item_poster":"\/tmp\/media\/other\/catalog_images_hosp\/poster_AAHOSP31.png",
"price":[
{
"currency_code":"USD",
"currency_symbol_left":"$",
"currency_symbol_right":false,
"currency_price":"0"
}
]
},
{
"item_node_id":"77",
"item_id":"30",
"item_sku":"AAHOSP30",
"title":"Mr. and Mrs. T Bloody Mary Mix",
"sub_title":"",
"description_short":"",
"description_long":"We apologize if your selection is not available.",
"item_code":"",
"item_product_code":"",
"item_thumb":"\/tmp\/media\/other\/catalog_images_hosp\/thumb_AAHOSP30.png",
"item_poster":"\/tmp\/media\/other\/catalog_images_hosp\/poster_AAHOSP30.png",
"price":[
{
"currency_code":"USD",
"currency_symbol_left":"$",
"currency_symbol_right":false,
"currency_price":"0"
}
]
}
]
},
{
"category_node_id":"12",
"category_node_child_nodes":null,
"category_node_parent_id":null,
"title":"Option 3",
"sub_title":"Coffee ",
"description_long":"",
"description_short":"",
"attr":[
],
"assoc":[
],
"category_node_sku":0,
"category_node_display_type":"3",
"has_buttons":0,
"item_node":[
{
"item_node_id":"78",
"item_id":"35",
"item_sku":"AAHOSP35",
"title":"Java City Coffee",
"sub_title":"",
"description_short":"",
"description_long":"We apologize if your selection is not available.",
"item_code":"",
"item_product_code":"",
"item_thumb":"\/tmp\/media\/other\/catalog_images_hosp\/thumb_AAHOSP35.png",
"item_poster":"\/tmp\/media\/other\/catalog_images_hosp\/poster_AAHOSP35.png",
"price":[
{
"currency_code":"USD",
"currency_symbol_left":"$",
"currency_symbol_right":false,
"currency_price":"0"
}
]
},
{
"item_node_id":"79",
"item_id":"32",
"item_sku":"AAHOSP32",
"title":"Bigelow Tea",
"sub_title":"",
"description_short":"",
"description_long":"We apologize if your selection is not available.",
"item_code":"",
"item_product_code":"",
"item_thumb":"\/tmp\/media\/other\/catalog_images_hosp\/thumb_AAHOSP32.png",
"item_poster":"\/tmp\/media\/other\/catalog_images_hosp\/poster_AAHOSP32.png",
"price":[
{
"currency_code":"USD",
"currency_symbol_left":"$",
"currency_symbol_right":false,
"currency_price":"0"
}
]
},
{
"item_node_id":"80",
"item_id":"33",
"item_sku":"AAHOSP33",
"title":"Bottled Water",
"sub_title":"",
"description_short":"",
"description_long":"We apologize if your selection is not available.",
"item_code":"",
"item_product_code":"",
"item_thumb":"\/tmp\/media\/other\/catalog_images_hosp\/thumb_AAHOSP33.png",
"item_poster":"\/tmp\/media\/other\/catalog_images_hosp\/poster_AAHOSP33.png",
"price":[
{
"currency_code":"USD",
"currency_symbol_left":"$",
"currency_symbol_right":false,
"currency_price":"0"
}
]
}
]
}
]
},
{
"merchant_id":"1",
"catalog_id":"2",
"catalog_type":"lunch",
"catalog_code":"Lunch",
"language_id":"1",
"title":"Lunch",
"sub_title":"AA Economy Class Beverage Subtitle",
"description_long":"AA Economy Class Beverage Long Description",
"description_short":"AA Economy Class Beverage Short Description",
"catalog_image":"/tmp/interactive/content/media/images/eco_meal_syn_poster.png",
"catalog_lang_poster_image":"\/tmp\/media\/other\/catalog_images_hosp\/Economy-HOSP-catalog-2-ENG-poster.jpg",
"catalog_lang_thumb_image":"/tmp/interactive/content/media/images/eco_meal_poster_big.png",
"catalog_lang_icon_image":"\/tmp\/media\/other\/catalog_images_hosp\/Economy-HOSP-catalog-2-ENG-icon.jpg",
"has_buttons":0,
"delay":[
{
"delay_id":"2",
"delay_code":"NOW",
"delay_description":"As soon as possible.",
"delay_minutes":"0"
}
],
"category_node":[
{
"category_node_id":"10",
"category_node_child_nodes":null,
"category_node_parent_id":null,
"title":"Option 1",
"sub_title":"Sodas",
"description_long":"",
"description_short":"",
"attr":[
],
"assoc":[
],
"category_node_sku":0,
"category_node_display_type":"3",
"has_buttons":0,
"item_node":[
{
"item_node_id":"61",
"item_id":"24",
"item_sku":"AAHOSP24",
"title":"Coca-Cola Classic",
"sub_title":"",
"description_short":"",
"description_long":"We apologize if your selection is not available.",
"item_code":"",
"item_product_code":"",
"item_thumb":"\/tmp\/media\/other\/catalog_images_hosp\/thumb_AAHOSP24.png",
"item_poster":"\/tmp\/media\/other\/catalog_images_hosp\/poster_AAHOSP24.png",
"price":[
{
"currency_code":"USD",
"currency_symbol_left":"$",
"currency_symbol_right":false,
"currency_price":"0"
}
]
},
{
"item_node_id":"62",
"item_id":"25",
"item_sku":"AAHOSP25",
"title":"Diet Coke",
"sub_title":"",
"description_short":"",
"description_long":"We apologize if your selection is not available.",
"item_code":"",
"item_product_code":"",
"item_thumb":"\/tmp\/media\/other\/catalog_images_hosp\/thumb_AAHOSP25.png",
"item_poster":"\/tmp\/media\/other\/catalog_images_hosp\/poster_AAHOSP25.png",
"price":[
{
"currency_code":"USD",
"currency_symbol_left":"$",
"currency_symbol_right":false,
"currency_price":"0"
}
]
},
{
"item_node_id":"63",
"item_id":"26",
"item_sku":"AAHOSP26",
"title":"Sprite",
"sub_title":"",
"description_short":"",
"description_long":"We apologize if your selection is not available.",
"item_code":"",
"item_product_code":"",
"item_thumb":"\/tmp\/media\/other\/catalog_images_hosp\/thumb_AAHOSP26.png",
"item_poster":"\/tmp\/media\/other\/catalog_images_hosp\/poster_AAHOSP26.png",
"price":[
{
"currency_code":"USD",
"currency_symbol_left":"$",
"currency_symbol_right":false,
"currency_price":"0"
}
]
},
{
"item_node_id":"64",
"item_id":"16",
"item_sku":"AAHOSP16",
"title":"Pepsi",
"sub_title":"",
"description_short":"",
"description_long":"We apologize if your selection is not available.",
"item_code":"",
"item_product_code":"",
"item_thumb":"\/tmp\/media\/other\/catalog_images_hosp\/thumb_AAHOSP16.png",
"item_poster":"\/tmp\/media\/other\/catalog_images_hosp\/poster_AAHOSP16.png",
"price":[
{
"currency_code":"USD",
"currency_symbol_left":"$",
"currency_symbol_right":false,
"currency_price":"0"
}
]
},
{
"item_node_id":"65",
"item_id":"17",
"item_sku":"AAHOSP17",
"title":"Diet Pepsi",
"sub_title":"",
"description_short":"",
"description_long":"We apologize if your selection is not available.",
"item_code":"",
"item_product_code":"",
"item_thumb":"\/tmp\/media\/other\/catalog_images_hosp\/thumb_AAHOSP17.png",
"item_poster":"\/tmp\/media\/other\/catalog_images_hosp\/poster_AAHOSP17.png",
"price":[
{
"currency_code":"USD",
"currency_symbol_left":"$",
"currency_symbol_right":false,
"currency_price":"0"
}
]
},
{
"item_node_id":"66",
"item_id":"18",
"item_sku":"AAHOSP18",
"title":"Sierra Mist Natural",
"sub_title":"",
"description_short":"",
"description_long":"We apologize if your selection is not available.",
"item_code":"",
"item_product_code":"",
"item_thumb":"\/tmp\/media\/other\/catalog_images_hosp\/thumb_AAHOSP18.png",
"item_poster":"\/tmp\/media\/other\/catalog_images_hosp\/poster_AAHOSP18.png",
"price":[
{
"currency_code":"USD",
"currency_symbol_left":"$",
"currency_symbol_right":false,
"currency_price":"0"
}
]
},
{
"item_node_id":"67",
"item_id":"55",
"item_sku":"AAHOSP55",
"title":"Diet Sierra Mist",
"sub_title":"",
"description_short":"",
"description_long":"We apologize if your selection is not available.",
"item_code":"",
"item_product_code":"",
"item_thumb":"\/tmp\/media\/other\/catalog_images_hosp\/thumb_AAHOSP55.png",
"item_poster":"\/tmp\/media\/other\/catalog_images_hosp\/poster_AAHOSP55.png",
"price":[
{
"currency_code":"USD",
"currency_symbol_left":"$",
"currency_symbol_right":false,
"currency_price":"0"
}
]
},
{
"item_node_id":"68",
"item_id":"19",
"item_sku":"AAHOSP19",
"title":"Dr Pepper",
"sub_title":"",
"description_short":"",
"description_long":"We apologize if your selection is not available.",
"item_code":"",
"item_product_code":"",
"item_thumb":"\/tmp\/media\/other\/catalog_images_hosp\/thumb_AAHOSP19.png",
"item_poster":"\/tmp\/media\/other\/catalog_images_hosp\/poster_AAHOSP19.png",
"price":[
{
"currency_code":"USD",
"currency_symbol_left":"$",
"currency_symbol_right":false,
"currency_price":"0"
}
]
},
{
"item_node_id":"69",
"item_id":"20",
"item_sku":"AAHOSP20",
"title":"Diet Dr Pepper",
"sub_title":"",
"description_short":"",
"description_long":"We apologize if your selection is not available.",
"item_code":"",
"item_product_code":"",
"item_thumb":"\/tmp\/media\/other\/catalog_images_hosp\/thumb_AAHOSP20.png",
"item_poster":"\/tmp\/media\/other\/catalog_images_hosp\/poster_AAHOSP20.png",
"price":[
{
"currency_code":"USD",
"currency_symbol_left":"$",
"currency_symbol_right":false,
"currency_price":"0"
}
]
},
{
"item_node_id":"70",
"item_id":"23",
"item_sku":"AAHOSP23",
"title":"Canada Dry Club Soda",
"sub_title":"",
"description_short":"",
"description_long":"We apologize if your selection is not available.",
"item_code":"",
"item_product_code":"",
"item_thumb":"\/tmp\/media\/other\/catalog_images_hosp\/thumb_AAHOSP23.png",
"item_poster":"\/tmp\/media\/other\/catalog_images_hosp\/poster_AAHOSP23.png",
"price":[
{
"currency_code":"USD",
"currency_symbol_left":"$",
"currency_symbol_right":false,
"currency_price":"0"
}
]
},
{
"item_node_id":"71",
"item_id":"21",
"item_sku":"AAHOSP21",
"title":"Canada Dry Ginger Ale",
"sub_title":"",
"description_short":"",
"description_long":"We apologize if your selection is not available.",
"item_code":"",
"item_product_code":"",
"item_thumb":"\/tmp\/media\/other\/catalog_images_hosp\/thumb_AAHOSP21.png",
"item_poster":"\/tmp\/media\/other\/catalog_images_hosp\/poster_AAHOSP21.png",
"price":[
{
"currency_code":"USD",
"currency_symbol_left":"$",
"currency_symbol_right":false,
"currency_price":"0"
}
]
},
{
"item_node_id":"72",
"item_id":"22",
"item_sku":"AAHOSP22",
"title":"Canada Dry Tonic Water",
"sub_title":"",
"description_short":"",
"description_long":"We apologize if your selection is not available.",
"item_code":"",
"item_product_code":"",
"item_thumb":"\/tmp\/media\/other\/catalog_images_hosp\/thumb_AAHOSP22.png",
"item_poster":"\/tmp\/media\/other\/catalog_images_hosp\/poster_AAHOSP22.png",
"price":[
{
"currency_code":"USD",
"currency_symbol_left":"$",
"currency_symbol_right":false,
"currency_price":"0"
}
]
}
]
},
{
"category_node_id":"12",
"category_node_child_nodes":null,
"category_node_parent_id":null,
"title":"Option 2",
"sub_title":"Coffee Tea & Water",
"description_long":"",
"description_short":"",
"attr":[
],
"assoc":[
],
"category_node_sku":0,
"category_node_display_type":"3",
"has_buttons":0,
"item_node":[
{
"item_node_id":"78",
"item_id":"35",
"item_sku":"AAHOSP35",
"title":"Java City Coffee",
"sub_title":"",
"description_short":"",
"description_long":"We apologize if your selection is not available.",
"item_code":"",
"item_product_code":"",
"item_thumb":"\/tmp\/media\/other\/catalog_images_hosp\/thumb_AAHOSP35.png",
"item_poster":"\/tmp\/media\/other\/catalog_images_hosp\/poster_AAHOSP35.png",
"price":[
{
"currency_code":"USD",
"currency_symbol_left":"$",
"currency_symbol_right":false,
"currency_price":"0"
}
]
},
{
"item_node_id":"79",
"item_id":"32",
"item_sku":"AAHOSP32",
"title":"Bigelow Tea",
"sub_title":"",
"description_short":"",
"description_long":"We apologize if your selection is not available.",
"item_code":"",
"item_product_code":"",
"item_thumb":"\/tmp\/media\/other\/catalog_images_hosp\/thumb_AAHOSP32.png",
"item_poster":"\/tmp\/media\/other\/catalog_images_hosp\/poster_AAHOSP32.png",
"price":[
{
"currency_code":"USD",
"currency_symbol_left":"$",
"currency_symbol_right":false,
"currency_price":"0"
}
]
},
{
"item_node_id":"80",
"item_id":"33",
"item_sku":"AAHOSP33",
"title":"Bottled Water",
"sub_title":"",
"description_short":"",
"description_long":"We apologize if your selection is not available.",
"item_code":"",
"item_product_code":"",
"item_thumb":"\/tmp\/media\/other\/catalog_images_hosp\/thumb_AAHOSP33.png",
"item_poster":"\/tmp\/media\/other\/catalog_images_hosp\/poster_AAHOSP33.png",
"price":[
{
"currency_code":"USD",
"currency_symbol_left":"$",
"currency_symbol_right":false,
"currency_price":"0"
}
]
}
]
}
]
},
{
"merchant_id":"1",
"catalog_id":"3",
"catalog_type":"beverages",
"catalog_code":"AA Economy Class Beverage",
"language_id":"1",
"title":"Bebidas alco\u00f3licas",
"sub_title":"AA Economy Class Beverage Subtitle",
"description_long":"AA Economy Class Beverage Long Description",
"description_short":"AA Economy Class Beverage Short Description",
"catalog_image":"/tmp/interactive/content/media/images/eco_meal_syn_poster.png",
"catalog_lang_poster_image":"\/tmp\/media\/other\/catalog_images_hosp\/Economy-HOSP-catalog-2-ENG-poster.jpg",
"catalog_lang_thumb_image":"/tmp/interactive/content/media/images/eco_meal_poster_big.png",
"catalog_lang_icon_image":"\/tmp\/media\/other\/catalog_images_hosp\/Economy-HOSP-catalog-2-ENG-icon.jpg",
"has_buttons":0,
"delay":[
{
"delay_id":"2",
"delay_code":"NOW",
"delay_description":"As soon as possible.",
"delay_minutes":"0"
}
],
"category_node":[
{
"category_node_id":"12",
"category_node_child_nodes":null,
"category_node_parent_id":null,
"title":"Option 1",
"sub_title":"Sodas",
"description_long":"",
"description_short":"",
"attr":[
],
"assoc":[
],
"category_node_sku":0,
"category_node_display_type":"3",
"has_buttons":0,
"item_node":[
{
"item_node_id":"78",
"item_id":"35",
"item_sku":"AAHOSP35",
"title":"Java City Coffee",
"sub_title":"",
"description_short":"",
"description_long":"We apologize if your selection is not available.",
"item_code":"",
"item_product_code":"",
"item_thumb":"\/tmp\/media\/other\/catalog_images_hosp\/thumb_AAHOSP35.png",
"item_poster":"\/tmp\/media\/other\/catalog_images_hosp\/poster_AAHOSP35.png",
"price":[
{
"currency_code":"USD",
"currency_symbol_left":"$",
"currency_symbol_right":false,
"currency_price":"0"
}
]
},
{
"item_node_id":"79",
"item_id":"32",
"item_sku":"AAHOSP32",
"title":"Bigelow Tea",
"sub_title":"",
"description_short":"",
"description_long":"We apologize if your selection is not available.",
"item_code":"",
"item_product_code":"",
"item_thumb":"\/tmp\/media\/other\/catalog_images_hosp\/thumb_AAHOSP32.png",
"item_poster":"\/tmp\/media\/other\/catalog_images_hosp\/poster_AAHOSP32.png",
"price":[
{
"currency_code":"USD",
"currency_symbol_left":"$",
"currency_symbol_right":false,
"currency_price":"0"
}
]
},
{
"item_node_id":"80",
"item_id":"33",
"item_sku":"AAHOSP33",
"title":"Bottled Water",
"sub_title":"",
"description_short":"",
"description_long":"We apologize if your selection is not available.",
"item_code":"",
"item_product_code":"",
"item_thumb":"\/tmp\/media\/other\/catalog_images_hosp\/thumb_AAHOSP33.png",
"item_poster":"\/tmp\/media\/other\/catalog_images_hosp\/poster_AAHOSP33.png",
"price":[
{
"currency_code":"USD",
"currency_symbol_left":"$",
"currency_symbol_right":false,
"currency_price":"0"
}
]
}
]
}
]
},
{
"merchant_id":"1",
"catalog_id":"4",
"catalog_type":"wine",
"catalog_code":"Wines",
"language_id":"1",
"title":"Wines",
"sub_title":"AA Economy Class Beverage Subtitle",
"description_long":"AA Economy Class Beverage Long Description",
"description_short":"AA Economy Class Beverage Short Description",
"catalog_image":"/tmp/interactive/content/media/images/eco_meal_syn_poster.png",
"catalog_lang_poster_image":"\/tmp\/media\/other\/catalog_images_hosp\/Economy-HOSP-catalog-2-ENG-poster.jpg",
"catalog_lang_thumb_image":"/tmp/interactive/content/media/images/eco_meal_poster_big.png",
"catalog_lang_icon_image":"\/tmp\/media\/other\/catalog_images_hosp\/Economy-HOSP-catalog-2-ENG-icon.jpg",
"has_buttons":0,
"delay":[
{
"delay_id":"2",
"delay_code":"NOW",
"delay_description":"As soon as possible.",
"delay_minutes":"0"
}
],
"category_node":[
{
"category_node_id":"20",
"category_node_child_nodes":null,
"category_node_parent_id":null,
"title":"Option 1",
"sub_title":"",
"description_long":"",
"description_short":"",
"attr":[
],
"assoc":[
],
"category_node_sku":0,
"category_node_display_type":"3",
"has_buttons":0,
"item_node":[
{
"item_node_id":"61",
"item_id":"24",
"item_sku":"AAHOSP24",
"title":"Coca-Cola Classic",
"sub_title":"",
"description_short":"",
"description_long":"We apologize if your selection is not available.",
"item_code":"",
"item_product_code":"",
"item_thumb":"\/tmp\/media\/other\/catalog_images_hosp\/thumb_AAHOSP24.png",
"item_poster":"\/tmp\/media\/other\/catalog_images_hosp\/poster_AAHOSP24.png",
"price":[
{
"currency_code":"USD",
"currency_symbol_left":"$",
"currency_symbol_right":false,
"currency_price":"0"
}
]
},
{
"item_node_id":"62",
"item_id":"25",
"item_sku":"AAHOSP25",
"title":"Diet Coke",
"sub_title":"",
"description_short":"",
"description_long":"We apologize if your selection is not available.",
"item_code":"",
"item_product_code":"",
"item_thumb":"\/tmp\/media\/other\/catalog_images_hosp\/thumb_AAHOSP25.png",
"item_poster":"\/tmp\/media\/other\/catalog_images_hosp\/poster_AAHOSP25.png",
"price":[
{
"currency_code":"USD",
"currency_symbol_left":"$",
"currency_symbol_right":false,
"currency_price":"0"
}
]
},
{
"item_node_id":"63",
"item_id":"26",
"item_sku":"AAHOSP26",
"title":"Sprite",
"sub_title":"",
"description_short":"",
"description_long":"We apologize if your selection is not available.",
"item_code":"",
"item_product_code":"",
"item_thumb":"\/tmp\/media\/other\/catalog_images_hosp\/thumb_AAHOSP26.png",
"item_poster":"\/tmp\/media\/other\/catalog_images_hosp\/poster_AAHOSP26.png",
"price":[
{
"currency_code":"USD",
"currency_symbol_left":"$",
"currency_symbol_right":false,
"currency_price":"0"
}
]
},
{
"item_node_id":"64",
"item_id":"16",
"item_sku":"AAHOSP16",
"title":"Pepsi",
"sub_title":"",
"description_short":"",
"description_long":"We apologize if your selection is not available.",
"item_code":"",
"item_product_code":"",
"item_thumb":"\/tmp\/media\/other\/catalog_images_hosp\/thumb_AAHOSP16.png",
"item_poster":"\/tmp\/media\/other\/catalog_images_hosp\/poster_AAHOSP16.png",
"price":[
{
"currency_code":"USD",
"currency_symbol_left":"$",
"currency_symbol_right":false,
"currency_price":"0"
}
]
},
{
"item_node_id":"65",
"item_id":"17",
"item_sku":"AAHOSP17",
"title":"Diet Pepsi",
"sub_title":"",
"description_short":"",
"description_long":"We apologize if your selection is not available.",
"item_code":"",
"item_product_code":"",
"item_thumb":"\/tmp\/media\/other\/catalog_images_hosp\/thumb_AAHOSP17.png",
"item_poster":"\/tmp\/media\/other\/catalog_images_hosp\/poster_AAHOSP17.png",
"price":[
{
"currency_code":"USD",
"currency_symbol_left":"$",
"currency_symbol_right":false,
"currency_price":"0"
}
]
},
{
"item_node_id":"66",
"item_id":"18",
"item_sku":"AAHOSP18",
"title":"Sierra Mist Natural",
"sub_title":"",
"description_short":"",
"description_long":"We apologize if your selection is not available.",
"item_code":"",
"item_product_code":"",
"item_thumb":"\/tmp\/media\/other\/catalog_images_hosp\/thumb_AAHOSP18.png",
"item_poster":"\/tmp\/media\/other\/catalog_images_hosp\/poster_AAHOSP18.png",
"price":[
{
"currency_code":"USD",
"currency_symbol_left":"$",
"currency_symbol_right":false,
"currency_price":"0"
}
]
},
{
"item_node_id":"67",
"item_id":"55",
"item_sku":"AAHOSP55",
"title":"Diet Sierra Mist",
"sub_title":"",
"description_short":"",
"description_long":"We apologize if your selection is not available.",
"item_code":"",
"item_product_code":"",
"item_thumb":"\/tmp\/media\/other\/catalog_images_hosp\/thumb_AAHOSP55.png",
"item_poster":"\/tmp\/media\/other\/catalog_images_hosp\/poster_AAHOSP55.png",
"price":[
{
"currency_code":"USD",
"currency_symbol_left":"$",
"currency_symbol_right":false,
"currency_price":"0"
}
]
},
{
"item_node_id":"68",
"item_id":"19",
"item_sku":"AAHOSP19",
"title":"Dr Pepper",
"sub_title":"",
"description_short":"",
"description_long":"We apologize if your selection is not available.",
"item_code":"",
"item_product_code":"",
"item_thumb":"\/tmp\/media\/other\/catalog_images_hosp\/thumb_AAHOSP19.png",
"item_poster":"\/tmp\/media\/other\/catalog_images_hosp\/poster_AAHOSP19.png",
"price":[
{
"currency_code":"USD",
"currency_symbol_left":"$",
"currency_symbol_right":false,
"currency_price":"0"
}
]
},
{
"item_node_id":"69",
"item_id":"20",
"item_sku":"AAHOSP20",
"title":"Diet Dr Pepper",
"sub_title":"",
"description_short":"",
"description_long":"We apologize if your selection is not available.",
"item_code":"",
"item_product_code":"",
"item_thumb":"\/tmp\/media\/other\/catalog_images_hosp\/thumb_AAHOSP20.png",
"item_poster":"\/tmp\/media\/other\/catalog_images_hosp\/poster_AAHOSP20.png",
"price":[
{
"currency_code":"USD",
"currency_symbol_left":"$",
"currency_symbol_right":false,
"currency_price":"0"
}
]
},
{
"item_node_id":"70",
"item_id":"23",
"item_sku":"AAHOSP23",
"title":"Canada Dry Club Soda",
"sub_title":"",
"description_short":"",
"description_long":"We apologize if your selection is not available.",
"item_code":"",
"item_product_code":"",
"item_thumb":"\/tmp\/media\/other\/catalog_images_hosp\/thumb_AAHOSP23.png",
"item_poster":"\/tmp\/media\/other\/catalog_images_hosp\/poster_AAHOSP23.png",
"price":[
{
"currency_code":"USD",
"currency_symbol_left":"$",
"currency_symbol_right":false,
"currency_price":"0"
}
]
},
{
"item_node_id":"71",
"item_id":"21",
"item_sku":"AAHOSP21",
"title":"Canada Dry Ginger Ale",
"sub_title":"",
"description_short":"",
"description_long":"We apologize if your selection is not available.",
"item_code":"",
"item_product_code":"",
"item_thumb":"\/tmp\/media\/other\/catalog_images_hosp\/thumb_AAHOSP21.png",
"item_poster":"\/tmp\/media\/other\/catalog_images_hosp\/poster_AAHOSP21.png",
"price":[
{
"currency_code":"USD",
"currency_symbol_left":"$",
"currency_symbol_right":false,
"currency_price":"0"
}
]
},
{
"item_node_id":"72",
"item_id":"22",
"item_sku":"AAHOSP22",
"title":"Canada Dry Tonic Water",
"sub_title":"",
"description_short":"",
"description_long":"We apologize if your selection is not available.",
"item_code":"",
"item_product_code":"",
"item_thumb":"\/tmp\/media\/other\/catalog_images_hosp\/thumb_AAHOSP22.png",
"item_poster":"\/tmp\/media\/other\/catalog_images_hosp\/poster_AAHOSP22.png",
"price":[
{
"currency_code":"USD",
"currency_symbol_left":"$",
"currency_symbol_right":false,
"currency_price":"0"
}
]
}
]
},
{
"category_node_id":"11",
"category_node_child_nodes":null,
"category_node_parent_id":null,
"title":"Option 2",
"sub_title":"Juices",
"description_long":"",
"description_short":"",
"attr":[
],
"assoc":[
],
"category_node_sku":0,
"category_node_display_type":"3",
"has_buttons":0,
"item_node":[
{
"item_node_id":"73",
"item_id":"29",
"item_sku":"AAHOSP29",
"title":"Minute Maid Apple Juice",
"sub_title":"",
"description_short":"",
"description_long":"We apologize if your selection is not available.",
"item_code":"",
"item_product_code":"",
"item_thumb":"\/tmp\/media\/other\/catalog_images_hosp\/thumb_AAHOSP29.png",
"item_poster":"\/tmp\/media\/other\/catalog_images_hosp\/poster_AAHOSP29.png",
"price":[
{
"currency_code":"USD",
"currency_symbol_left":"$",
"currency_symbol_right":false,
"currency_price":"0"
}
]
},
{
"item_node_id":"74",
"item_id":"27",
"item_sku":"AAHOSP27",
"title":"Minute Maid Cranberry Apple Cocktail",
"sub_title":"",
"description_short":"",
"description_long":"We apologize if your selection is not available.",
"item_code":"",
"item_product_code":"",
"item_thumb":"\/tmp\/media\/other\/catalog_images_hosp\/thumb_AAHOSP27.png",
"item_poster":"\/tmp\/media\/other\/catalog_images_hosp\/poster_AAHOSP27.png",
"price":[
{
"currency_code":"USD",
"currency_symbol_left":"$",
"currency_symbol_right":false,
"currency_price":"0"
}
]
},
{
"item_node_id":"75",
"item_id":"28",
"item_sku":"AAHOSP28",
"title":"Minute Maid Orange Juice",
"sub_title":"",
"description_short":"",
"description_long":"We apologize if your selection is not available.",
"item_code":"",
"item_product_code":"",
"item_thumb":"\/tmp\/media\/other\/catalog_images_hosp\/thumb_AAHOSP28.png",
"item_poster":"\/tmp\/media\/other\/catalog_images_hosp\/poster_AAHOSP28.png",
"price":[
{
"currency_code":"USD",
"currency_symbol_left":"$",
"currency_symbol_right":false,
"currency_price":"0"
}
]
},
{
"item_node_id":"76",
"item_id":"31",
"item_sku":"AAHOSP31",
"title":"Mott\u2019s Tomato Juice",
"sub_title":"",
"description_short":"",
"description_long":"We apologize if your selection is not available.",
"item_code":"",
"item_product_code":"",
"item_thumb":"\/tmp\/media\/other\/catalog_images_hosp\/thumb_AAHOSP31.png",
"item_poster":"\/tmp\/media\/other\/catalog_images_hosp\/poster_AAHOSP31.png",
"price":[
{
"currency_code":"USD",
"currency_symbol_left":"$",
"currency_symbol_right":false,
"currency_price":"0"
}
]
},
{
"item_node_id":"77",
"item_id":"30",
"item_sku":"AAHOSP30",
"title":"Mr. and Mrs. T Bloody Mary Mix",
"sub_title":"",
"description_short":"",
"description_long":"We apologize if your selection is not available.",
"item_code":"",
"item_product_code":"",
"item_thumb":"\/tmp\/media\/other\/catalog_images_hosp\/thumb_AAHOSP30.png",
"item_poster":"\/tmp\/media\/other\/catalog_images_hosp\/poster_AAHOSP30.png",
"price":[
{
"currency_code":"USD",
"currency_symbol_left":"$",
"currency_symbol_right":false,
"currency_price":"0"
}
]
}
]
},

{
"category_node_id":"10",
"category_node_child_nodes":null,
"category_node_parent_id":null,
"title":"Option 3",
"sub_title":"Sodas",
"description_long":"",
"description_short":"",
"attr":[
],
"assoc":[
],
"category_node_sku":0,
"category_node_display_type":"3",
"has_buttons":0,
"item_node":[
{
"item_node_id":"61",
"item_id":"24",
"item_sku":"AAHOSP24",
"title":"Coca-Cola Classic",
"sub_title":"",
"description_short":"",
"description_long":"We apologize if your selection is not available.",
"item_code":"",
"item_product_code":"",
"item_thumb":"\/tmp\/media\/other\/catalog_images_hosp\/thumb_AAHOSP24.png",
"item_poster":"\/tmp\/media\/other\/catalog_images_hosp\/poster_AAHOSP24.png",
"price":[
{
"currency_code":"USD",
"currency_symbol_left":"$",
"currency_symbol_right":false,
"currency_price":"0"
}
]
},
{
"item_node_id":"62",
"item_id":"25",
"item_sku":"AAHOSP25",
"title":"Diet Coke",
"sub_title":"",
"description_short":"",
"description_long":"We apologize if your selection is not available.",
"item_code":"",
"item_product_code":"",
"item_thumb":"\/tmp\/media\/other\/catalog_images_hosp\/thumb_AAHOSP25.png",
"item_poster":"\/tmp\/media\/other\/catalog_images_hosp\/poster_AAHOSP25.png",
"price":[
{
"currency_code":"USD",
"currency_symbol_left":"$",
"currency_symbol_right":false,
"currency_price":"0"
}
]
},
{
"item_node_id":"63",
"item_id":"26",
"item_sku":"AAHOSP26",
"title":"Sprite",
"sub_title":"",
"description_short":"",
"description_long":"We apologize if your selection is not available.",
"item_code":"",
"item_product_code":"",
"item_thumb":"\/tmp\/media\/other\/catalog_images_hosp\/thumb_AAHOSP26.png",
"item_poster":"\/tmp\/media\/other\/catalog_images_hosp\/poster_AAHOSP26.png",
"price":[
{
"currency_code":"USD",
"currency_symbol_left":"$",
"currency_symbol_right":false,
"currency_price":"0"
}
]
},
{
"item_node_id":"64",
"item_id":"16",
"item_sku":"AAHOSP16",
"title":"Pepsi",
"sub_title":"",
"description_short":"",
"description_long":"We apologize if your selection is not available.",
"item_code":"",
"item_product_code":"",
"item_thumb":"\/tmp\/media\/other\/catalog_images_hosp\/thumb_AAHOSP16.png",
"item_poster":"\/tmp\/media\/other\/catalog_images_hosp\/poster_AAHOSP16.png",
"price":[
{
"currency_code":"USD",
"currency_symbol_left":"$",
"currency_symbol_right":false,
"currency_price":"0"
}
]
},
{
"item_node_id":"65",
"item_id":"17",
"item_sku":"AAHOSP17",
"title":"Diet Pepsi",
"sub_title":"",
"description_short":"",
"description_long":"We apologize if your selection is not available.",
"item_code":"",
"item_product_code":"",
"item_thumb":"\/tmp\/media\/other\/catalog_images_hosp\/thumb_AAHOSP17.png",
"item_poster":"\/tmp\/media\/other\/catalog_images_hosp\/poster_AAHOSP17.png",
"price":[
{
"currency_code":"USD",
"currency_symbol_left":"$",
"currency_symbol_right":false,
"currency_price":"0"
}
]
},
{
"item_node_id":"66",
"item_id":"18",
"item_sku":"AAHOSP18",
"title":"Sierra Mist Natural",
"sub_title":"",
"description_short":"",
"description_long":"We apologize if your selection is not available.",
"item_code":"",
"item_product_code":"",
"item_thumb":"\/tmp\/media\/other\/catalog_images_hosp\/thumb_AAHOSP18.png",
"item_poster":"\/tmp\/media\/other\/catalog_images_hosp\/poster_AAHOSP18.png",
"price":[
{
"currency_code":"USD",
"currency_symbol_left":"$",
"currency_symbol_right":false,
"currency_price":"0"
}
]
},
{
"item_node_id":"67",
"item_id":"55",
"item_sku":"AAHOSP55",
"title":"Diet Sierra Mist",
"sub_title":"",
"description_short":"",
"description_long":"We apologize if your selection is not available.",
"item_code":"",
"item_product_code":"",
"item_thumb":"\/tmp\/media\/other\/catalog_images_hosp\/thumb_AAHOSP55.png",
"item_poster":"\/tmp\/media\/other\/catalog_images_hosp\/poster_AAHOSP55.png",
"price":[
{
"currency_code":"USD",
"currency_symbol_left":"$",
"currency_symbol_right":false,
"currency_price":"0"
}
]
},
{
"item_node_id":"68",
"item_id":"19",
"item_sku":"AAHOSP19",
"title":"Dr Pepper",
"sub_title":"",
"description_short":"",
"description_long":"We apologize if your selection is not available.",
"item_code":"",
"item_product_code":"",
"item_thumb":"\/tmp\/media\/other\/catalog_images_hosp\/thumb_AAHOSP19.png",
"item_poster":"\/tmp\/media\/other\/catalog_images_hosp\/poster_AAHOSP19.png",
"price":[
{
"currency_code":"USD",
"currency_symbol_left":"$",
"currency_symbol_right":false,
"currency_price":"0"
}
]
},
{
"item_node_id":"69",
"item_id":"20",
"item_sku":"AAHOSP20",
"title":"Diet Dr Pepper",
"sub_title":"",
"description_short":"",
"description_long":"We apologize if your selection is not available.",
"item_code":"",
"item_product_code":"",
"item_thumb":"\/tmp\/media\/other\/catalog_images_hosp\/thumb_AAHOSP20.png",
"item_poster":"\/tmp\/media\/other\/catalog_images_hosp\/poster_AAHOSP20.png",
"price":[
{
"currency_code":"USD",
"currency_symbol_left":"$",
"currency_symbol_right":false,
"currency_price":"0"
}
]
},
{
"item_node_id":"70",
"item_id":"23",
"item_sku":"AAHOSP23",
"title":"Canada Dry Club Soda",
"sub_title":"",
"description_short":"",
"description_long":"We apologize if your selection is not available.",
"item_code":"",
"item_product_code":"",
"item_thumb":"\/tmp\/media\/other\/catalog_images_hosp\/thumb_AAHOSP23.png",
"item_poster":"\/tmp\/media\/other\/catalog_images_hosp\/poster_AAHOSP23.png",
"price":[
{
"currency_code":"USD",
"currency_symbol_left":"$",
"currency_symbol_right":false,
"currency_price":"0"
}
]
},
{
"item_node_id":"71",
"item_id":"21",
"item_sku":"AAHOSP21",
"title":"Canada Dry Ginger Ale",
"sub_title":"",
"description_short":"",
"description_long":"We apologize if your selection is not available.",
"item_code":"",
"item_product_code":"",
"item_thumb":"\/tmp\/media\/other\/catalog_images_hosp\/thumb_AAHOSP21.png",
"item_poster":"\/tmp\/media\/other\/catalog_images_hosp\/poster_AAHOSP21.png",
"price":[
{
"currency_code":"USD",
"currency_symbol_left":"$",
"currency_symbol_right":false,
"currency_price":"0"
}
]
},
{
"item_node_id":"72",
"item_id":"22",
"item_sku":"AAHOSP22",
"title":"Canada Dry Tonic Water",
"sub_title":"",
"description_short":"",
"description_long":"We apologize if your selection is not available.",
"item_code":"",
"item_product_code":"",
"item_thumb":"\/tmp\/media\/other\/catalog_images_hosp\/thumb_AAHOSP22.png",
"item_poster":"\/tmp\/media\/other\/catalog_images_hosp\/poster_AAHOSP22.png",
"price":[
{
"currency_code":"USD",
"currency_symbol_left":"$",
"currency_symbol_right":false,
"currency_price":"0"
}
]
}
]
},
{
"category_node_id":"12",
"category_node_child_nodes":null,
"category_node_parent_id":null,
"title":"Option 4",
"sub_title":"Coffee",
"description_long":"",
"description_short":"",
"attr":[
],
"assoc":[
],
"category_node_sku":0,
"category_node_display_type":"3",
"has_buttons":0,
"item_node":[
{
"item_node_id":"78",
"item_id":"35",
"item_sku":"AAHOSP35",
"title":"Java City Coffee",
"sub_title":"",
"description_short":"",
"description_long":"We apologize if your selection is not available.",
"item_code":"",
"item_product_code":"",
"item_thumb":"\/tmp\/media\/other\/catalog_images_hosp\/thumb_AAHOSP35.png",
"item_poster":"\/tmp\/media\/other\/catalog_images_hosp\/poster_AAHOSP35.png",
"price":[
{
"currency_code":"USD",
"currency_symbol_left":"$",
"currency_symbol_right":false,
"currency_price":"0"
}
]
},
{
"item_node_id":"79",
"item_id":"32",
"item_sku":"AAHOSP32",
"title":"Bigelow Tea",
"sub_title":"",
"description_short":"",
"description_long":"We apologize if your selection is not available.",
"item_code":"",
"item_product_code":"",
"item_thumb":"\/tmp\/media\/other\/catalog_images_hosp\/thumb_AAHOSP32.png",
"item_poster":"\/tmp\/media\/other\/catalog_images_hosp\/poster_AAHOSP32.png",
"price":[
{
"currency_code":"USD",
"currency_symbol_left":"$",
"currency_symbol_right":false,
"currency_price":"0"
}
]
},
{
"item_node_id":"80",
"item_id":"33",
"item_sku":"AAHOSP33",
"title":"Bottled Water",
"sub_title":"",
"description_short":"",
"description_long":"We apologize if your selection is not available.",
"item_code":"",
"item_product_code":"",
"item_thumb":"\/tmp\/media\/other\/catalog_images_hosp\/thumb_AAHOSP33.png",
"item_poster":"\/tmp\/media\/other\/catalog_images_hosp\/poster_AAHOSP33.png",
"price":[
{
"currency_code":"USD",
"currency_symbol_left":"$",
"currency_symbol_right":false,
"currency_price":"0"
}
]
}
]
}
]
}
]
}
]
}
