{
  "checksum": 0,
  "interactiveId": "null",
  "name": "aviancaLifeMile_business",
  "folderName": "aviancaLifeMile_business",
  "id": "aviancaLifeMile_business",
  "type": "microapp",
  "version": "null"
}
